PDB ID,Chain,Res Name,Res ID,Expt pKa
135L,A,ASP,18,2.68
135L,A,GLU,35,6.06
135L,A,GLU,7,2.68
1A6K,A,HIS,116,6.49
1A6K,A,HIS,12,6.29
1A6K,A,HIS,36,8.06
1A6K,A,HIS,48,5.25
1A6K,A,HIS,97,5.63
1A91,A,GLU,2,5.5
1A91,A,GLU,37,5.5
1A91,A,ASP,44,5.6
1A91,A,ASP,61,7.1
1A91,A,ASP,7,5.6
1ANS,A,GLU,20,5.4
1B2X,A,HIS,18,7.75
1B2X,A,GLU,60,3
1B2X,A,GLU,73,2.1
1BHC,J,LYS,46,10.6
1BI6,H,GLU,24,4.2
1BNI,B,ASP,12,3.8
1BNI,B,HIS,18,7.75
1BNI,B,GLU,29,3.75
1BNI,B,GLU,60,3
1BNI,B,GLU,73,2.1
1BNZ,A,ASP,16,2.62
1BNZ,A,ASP,35,2.67
1BNZ,A,GLU,54,3.56
1BPI,A,LYS,26,10.6
1BPI,A,GLU,49,3.8
1BVI,B,GLU,102,5.3
1BVI,B,HIS,27,7.57
1BVI,B,GLU,28,5.61
1BVI,B,ASP,29,4.26
1BVI,B,GLU,31,5.36
1BVI,B,HIS,40,7.44
1BVI,B,ASP,49,4.22
1CDC,A,GLU,29,4.42
1CDC,A,GLU,41,6.73
1CDC,A,ASP,62,4.15
1CDC,A,ASP,71,3.18
1CDC,A,ASP,94,3.87
1DE3,A,HIS,150,7.6
1DE3,A,GLU,19,4.6
1DE3,A,HIS,35,6.3
1DE3,A,HIS,36,6.8
1DE3,A,HIS,50,7.7
1DE3,A,GLU,96,5.1
1DG9,A,HIS,66,8.29
1DG9,A,HIS,72,9.19
1DWR,A,HIS,36,7.8
1ERT,A,ASP,16,3.7
1ERT,A,ASP,26,9.9
1ERT,A,ASP,60,4.2
1ERT,A,ASP,61,5.3
1EX3,A,ASP,102,1.36
1EX3,A,ASP,194,2.29
1GB1,A,GLU,56,4
1GS9,A,LYS,143,9.5
1GS9,A,LYS,146,9.2
1GS9,A,LYS,75,10.1
1H4G,B,GLU,184,6.5
1H4G,B,GLU,56,4.55
1H4G,B,HIS,60,4.01
1HNG,A,ASP,25,3.53
1HNG,A,GLU,41,6.73
1HNG,A,GLU,99,4.25
1HV0,A,GLU,172,7.2
1HV1,A,GLU,172,7.2
1HV1,A,GLU,78,4.6
1IG5,A,GLU,11,4.74
1IG5,A,LYS,16,11.06
1IG5,A,LYS,25,11.81
1IG5,A,LYS,29,11.28
1IG5,A,ASP,47,3.04
1IG5,A,LYS,55,12.12
1IG5,A,LYS,71,10.73
1IG5,A,LYS,72,11.33
1IG5,A,LYS,7,11.36
1IGC,A,ASP,27,2.9
1KF3,A,ASP,121,3
1KF3,A,GLU,2,2.7
1KF3,A,ASP,38,2.1
1KF3,A,GLU,86,4
1LNI,A,HIS,53,8.27
1LNI,A,GLU,78,3.13
1LNI,A,ASP,79,7.37
1LNI,A,ASP,93,3.09
1LSE,A,LYS,116,10.4
1LSE,A,ASP,18,2.66
1LSE,A,GLU,35,6.2
1LSE,A,ASP,48,1.6
1LSE,A,GLU,7,2.85
1LSE,A,ASP,87,2.07
1LZ3,A,ASP,119,3.35
1LZ3,A,ASP,18,2.68
1LZ3,A,GLU,35,6.06
1LZ3,A,GLU,7,2.68
1MUT,A,LYS,39,8.4
1PPF,I,LYS,13,9.87
1QH7,A,GLU,126,4.51
1QH7,A,GLU,178,4.1
1QH7,A,GLU,184,6.5
1QH7,A,ASP,21,3.46
1QH7,A,HIS,60,4.01
1QH7,A,GLU,94,3.94
1RGG,A,GLU,54,3.42
1SAP,A,ASP,16,2.89
1SAP,A,ASP,36,3.12
1SAP,A,GLU,47,4.21
1SAP,A,GLU,53,3.53
1STN,A,GLU,10,2.82
1STN,A,HIS,121,5.3
1STN,A,GLU,57,3.49
1TRS,A,GLU,13,4.4
1TRS,A,GLU,56,3.2
1TRS,A,ASP,60,3.9
1TRS,A,ASP,61,5.2
1UBQ,A,GLU,16,3.9
1UBQ,A,GLU,18,4.3
1XNB,A,ASP,106,2.7
1XNB,A,ASP,11,2.5
1XNB,A,GLU,172,7.2
1YGW,A,GLU,102,5.3
1YGW,A,ASP,15,3.52
1YGW,A,HIS,27,7.57
1YGW,A,GLU,28,5.61
1YGW,A,GLU,31,5.36
1YGW,A,HIS,40,7.44
1YGW,A,GLU,46,3.62
1YGW,A,ASP,49,4.22
2BCA,A,LYS,12,11.06
2BCA,A,LYS,16,11.06
2BCA,A,LYS,1,10.59
2BCA,A,LYS,29,11.28
2BCA,A,LYS,41,10.93
2BCA,A,LYS,55,12.12
2IGH,A,ASP,45,4.4
2OVO,A,GLU,19,3.21
2OVO,A,ASP,27,2.3
2OVO,A,GLU,43,4.81
2OVO,A,ASP,7,2.67
2QMT,A,GLU,15,4.4
2QMT,A,ASP,22,2.9
2QMT,A,ASP,36,3.8
2QMT,A,ASP,40,4
2ZTA,A,GLU,11,4.05
2ZTA,A,HIS,18,6.24
2ZTA,A,LYS,27,11.1
2ZTA,A,LYS,8,11.26
3C1E,A,LYS,119,6.2
3RUZ,A,LYS,68,7.4
3SRN,A,HIS,105,6.82
4HHB,A,HIS,112,8.1
4HHB,A,HIS,20,7.6
4HHB,A,HIS,72,7.3
4HHB,A,HIS,89,7.2
4HMI,A,LYS,93,6.5
4ICB,A,GLU,11,4.74
4ICB,A,LYS,12,11.06
4ICB,A,LYS,25,11.81
4ICB,A,LYS,41,10.93
4ICB,A,ASP,47,3.04
4ICB,A,LYS,55,12.12
4ICB,A,GLU,5,3.4
4MBN,A,HIS,36,7.83
6GST,A,HIS,167,7.77
6GST,A,HIS,83,5.18
